[
	{
		"name": "drupal",
		"image": "bitnami/drupal",
		"essential": true,
		"portMappings": [
			{
				"containerPort": 80,
				"hostPort": 80
			}
		],
		"environment": [
			{
				"name": "DRUPAL_DATABASE_PASSWORD",
				"value": "forprojectproposal"
			},
			{
				"name": "DRUPAL_DATABASE_USER",
				"value": "test"
			},
			{
				"name": "DRUPAL_DATABASE_NAME",
				"value": "forprojectproposal"
			},
			{
				"name": "MARIADB_HOST",
				"value": "terraform-20191006110545569600000002.cltgbxf4tucl.eu-west-1.rds.amazonaws.com"
			},
			{
				"name": "DRUPAL_PASSWORD",
				"value": "forprojectproposal"
			}
		],
		"logConfiguration": {
			"logDriver": "awslogs",
			"options": {
				"awslogs-region": "eu-west-1",
				"awslogs-group": "/ecs/drupal",
				"awslogs-stream-prefix": "drupal"
			}
		},
		"networkMode": "awsvpc"
	}
]